id;email
10211398;_kwestura@wsse.edu.pl
43;3rzeki@3rzeki.pl
164394;605104104@wp.pl
451;a.krasniewska@darsa.pl
10014096;a.krzyzopolska@pwsz.elblag.pl
10070373;a.luszczynski@adm.uz.zgora.pl
116239;a.nadolna@chatakociewia.pl
10074777;a.olszewska@pw.plock.pl
10142453;a.orawski@wsa.bielsko.pl
10014762;a.richter@amg.gda.pl
10135445;a.szymanska@cyfronet.krakow.pl
10226864;a.toloczko@cosinus.pl
10179321;a.turon@nat.pl
10198262;a.wolowicz@ajd.czest.pl
10026849;a.ziolkowska@onet.pl
10117748;a_zubek@gwsp.edu.pl
10181420;abachniak@arr.czestochowa.pl
10040603;ac-dirk@uwb.edu.pl
10202910;adam.kadzinski@put.poznan.pl
10070651;adam.redmer@put.poznan.pl
10026568;adam.sieniawski@arp.gda.pl
10025415;adhara@ta.pl
10154959;adm@max.wroc.pl
10147641;administracja@dswe.wroc.pl
10163721;administracja@euro.edu.pl
10177839;administracja@kn-gliwice.edu.pl
10059908;administracja@pan.krakov.pl
10044357;administracja@pwszjar.edu.pl
10021902;administracja@wsb.poznan.pl
10151500;administracja@wsnhid.pl
10059318;administracjax@pwszplack.pl
116401;afaliszewski@wp.pl
10160358;afortuna@wsiz.rzeszow.pl
10029697;aga@aga.katowice.pl
10213310;agas@sci.pam.szczecin.pl
126599;agencja@region.zgora.pl
10077369;agnes@chem.pg.gda.pl
10190171;agnieszka.albekier@us.edu.pl
10038879;agnieszka.bulka@tyszkiewicz.edu.pl
10140629;agnieszka.dzik@amuz.krakow.pl
10098437;agnieszka.kasprzyk@wsb.torun.pl
10165585;agnieszka@globtourist.com
10223390;agnieszka@wsh-leszno.pl
10132632;agnieszka@wsl.edu.pl
10142982;agnieszkak@pw.plock.pl
10128915;agntaur@wp.pl
116450;agro@agrokwatera.eu
116460;agrotrusewicz@op.pl
116461;agroturystyka.brzeziny@interia.pl
116462;agroturyzm@las.pl
116484;airborne@bornesulinowo.pl
10202967;ajanas@agh.edu.pl
10134008;akaleta@sarr.com.pl
10161043;akcesja@bg.am.wroc.pl
116545;akt.watra@gmail.com
10040968;akuras@pwsz.tarnobrzeg.pl
10012364;akwart@agh.edu.pl
10032378;al@wsu.kielce.pl
134;aleksandrakowalczyk@o2.pl
10012364;alibel@agh.edu.pl
10070317;alicja.bledowska@put.poznan.pl
10127762;alicjawnuk@gmail.com
10059796;alina.szmalc@tu.koszalin.pl
10056921;alinaf@amu.edu.pl
116598;alindecki@pro.onet.pl
10088109;alkor@krysia.uni.lodz.pl
10183561;amojski@pwsip.edu.pl
10046809;andatur@wp.pl
10091956;andrzej.brianski@katowice.arp.com.pl
10160923;andrzej.idzikowski@ae.wroc.pl
10127762;andrzej.krysztofek@wum.edu.pl
10234351;andrzej.potemkowski@wp.pl
10129424;andrzej.urbaniak@uwm.edu.pl
10129176;andrzejkuwak@us.edu.pl
10116584;andrzejp@wsinf.edu.pl
10145284;andrzejszuminski@wp.pl
10226268;aneta@baltour.pl
10140419;aneta_nagrodkiewicz@parp.gov.pl
10181629;anetak@pw.plock.pl
10049124;aniadobra@poczta.onet.pl
10090539;aniak@poczta.neostrada.pl
10020670;anna.adamkiewicz@uwm.edu.pl
10020670;anna.opalach@uwm.edu.pl
10140712;anna.szaroleta@cm.umk.pl
10191052;anna.szwarczynska@polsl.pl
10086971;anna.szymandera@awf.edu.pl
160;annachrobak88@gmail.com
10038564;annawajrak@edu.pl
10172900;anulab@chat.edu.pl
10141853;aobiadowska@cbm.pan.pl
57;aot@poczta.onet.eu
10049124;aparatur@rkt.am.lodz.pl
10165552;apsarnowicz@wp.pl
10032355;aquarius@univ.szczecin.pl
10090539;aradek@ump.edu.pl
136672;araw@araw.pl
10164274;arilask@wp.pl
26704;arl@arl.org.pl
10186759;arl@arl.ostrowiec.pl
24813;arl_jaw@op.pl
85647;arpsa@arp.com.pl
24811;arpsa@ka.onet.pl
123850;arr@arr.czestochowa.pl
70899;arr@arrkonin.org.pl
10135402;arr@podlaskie.com
95387;arr@podlaskie.org.pl
10060041;arrares@ares.suwalki.pl
10143370;arreks@arreks.com.pl
77606;arrk@kutno.net.pl
7528;arrost@wp.pl
10045133;artbar@att.gov.pl
10012683;artur.rybarczyk@biot.ar.szczecin.pl
10245043;asikr@vp.pl
10058158;asp@gnsystem.pl
10242695;asp@wsa.edu.pl
10049130;ast@aspodroze.com
10049130;ast@home.pl
10146072;atesta@trol.pl
69333;atut-nysa@wp.pl
117399;augkoz@poczta.onet.pl
117426;avo@ciechanow.pl
10038017;awitryl@pwsz-ns.edu.pl
10028952;axet@axet.com.pl
10079380;b.wolowicz@ajd.czest.pl
10181242;bago@math.uni.lodz.pl
10013504;barbara.halas@poczta.umcs.lublin.pl
10213275;barbara.jeska@awf.wroc.pl
10032893;barbara.rakowska@wp.pl
10158292;barbara.urbanska.1@p.lodz.pl
10145725;barbara.zielonka@polsl.pl
10033228;barbarab@wseiz.pl
10202748;barbararadkiewicz@wp.pl
10228926;bartlomiej.swiec@wum.edu.pl
10127762;bartlomiej.swiech@wum.edu.pl
117529;baszta@poczta.bieszczady.pl
10147982;bbaranska@adm.pcz.czest.pl
10180039;bcktmiop@prz.edu.pl
10210265;beata@but.waw.pl
116422;beata@tarr.tarnow.pl
60;berto4@wp.pl
10046474;beskidy_tourist@poczta.onet.pl
10181860;bg.katowice@polsl.pl
10116904;bg_zakup@po.opole.pl
10231026;bhp.ppoz@uni.wroc.pl
10051304;bhp@apsl.edu.pl
10133146;bhp@cm-uj.krakow.pl
10160923;bhp@ue.wroc.pl
10086840;bhp@up.wroc.pl
10030030;bhpab@wkw.edu.pl
10180727;bhpippoz@umk.pl
117636;bialapodlaska@lfr.lublin.pl
10089587;bibl@eszim.sosnowiec.pl
10029697;bibl@zdz.katowice.pl
10214471;bibl4@limba.wil.pk.edu.pl
10016973;biblczaso@gumed.edu.pl
10111786;biblgromad@amg.gda.pl
10021258;bibliot@novci1.ae..poznan.pl
10070583;biblioteka@ath.bielsko.pl
10059908;biblioteka@biblioteka.pan.krak.pl
10155384;biblioteka@bwst.edu.pl
10147876;biblioteka@kpsw.edu.pl
10127582;biblioteka@msl.com.pl
10160434;biblioteka@osw.internetdsl.pl
10014878;biblioteka@pb.edu.pl
10158113;biblioteka@pwsbia.edu.pl
10183215;biblioteka@pwsz.kalisz.pl
10142453;biblioteka@wsa.bielsko.pl
10131582;biblioteka@wscil.edu.pl
10150827;biblioteka@wseiz.pl
10054929;biblioteka@wsew.edu.pl
10148538;biblioteka@wshe.lodz.pl
10019840;biblioteka@wshig.poznan.pl
10128025;biblioteka@wsh-leszno.pl
10099198;biblioteka@wshtwp.pl
10049892;biblioteka@wsinf.edu.pl
10044049;biblioteka@wsiz.rzeszow.pl
10125430;biblioteka@wsp.edu.pl
10213440;biblioteka@wsr.edu.pl
10160434;bibliotekaosw@gmail.com
10224151;bibliotekaszpelk@op.pl
10060290;bibwshe@gmail.com
140186;bilet@sigmatravel.pl
163;biuo@regionpieniny.pl
6;biuro.bylot@gmail.com
117751;biuro.lgd@niepolomice.com
117755;biuro.om@pttk.torun.pl
117758;biuro.pit@wp.pl
117759;biuro.plaskowyzlgd@o2.pl
10230490;biuro@all-tourist.pl
311875;biuro@almatur.pl
117811;biuro@alternativsailing.com
126598;biuro@armz.pl
65814;biuro@arrsa.pl
142136;biuro@arsg.lublin.pl
40;biuro@atest-tour.eu
69214;biuro@barr-ustrzyki.pl
29;biuro@beskidzielony.pl
117846;biuro@bialelugi.pl
117853;biuro@bigadventure.pl
138804;biuro@binex-turist.pl
117858;biuro@blgd.eu
117863;biuro@borydolnoslaskie.org
82;biuro@bot5.pl
117866;biuro@bractwokuznic.pl
127314;biuro@btz-pttk.krakow.pl
154225;biuro@centrumalga.pl
10210141;biuro@centrum-turystyki.pl
117895;biuro@cieszynskakraina.pl
69462;biuro@cross.org.pl
141809;biuro@czyzyny.pl
118;biuro@darlot.pl
117943;biuro@dolinagielczwi.org
117946;biuro@dolinastobrawy.pl
117954;biuro@dorzeczemleczki.pl
117955;biuro@dorzeczewisly.pl
117961;biuro@dunajecbiala.pl
10161361;biuro@fort.torun.pl
118120;biuro@fundacjakeja.org.pl
10183062;biuro@gaedig-reisen.pl
136749;biuro@gat.pl
8;biuro@gdot.pl
118201;biuro@grupaluzycka.pl
7;biuro@inlot.com.pl
93;biuro@it.mragowo.pl
81;biuro@jurajska.org.pl
118266;biuro@kanal-elblaski-lgd.pl
73;biuro@kaszubypolnocne.pl
12;biuro@kdot.pl
118293;biuro@klj.org.pl
118311;biuro@koscian.pttk.pl
26;biuro@kot.org.pl
118313;biuro@k-pot.pl
118318;biuro@krainanafty.pl
118319;biuro@krainarawki.eu
118327;biuro@krzemiennykrag.info
158;biuro@kurpiowskipark.pl
118341;biuro@kwiatlnu.eu
118345;biuro@leadergorce-pieniny.pl
118350;biuro@lesnykrag.pl
118351;biuro@leszno-region.pl
118353;biuro@lgdkrajna.pl
118354;biuro@lgdkrasnik.pl
118355;biuro@lgd-malemorze.pl
118356;biuro@lgdnp.org.pl
118357;biuro@lgdpolesie.pl
118358;biuro@lgd-puszcza-bialowieska.pl
118359;biuro@lgdrk.pl
118360;biuro@lgd-sandomierz.eu
118361;biuro@lgd-sejnenszczyzna.pl
118362;biuro@lgdsiedlisko.kolbuszowa.pl
118364;biuro@lgdstolem.pl
118366;biuro@lgdwrzeciono.pl
118367;biuro@lgdziemialubawska.pl
118368;biuro@lgdziemiapszczynska.pl
118369;biuro@lgdziemiminskiej.pl
118371;biuro@lgrow.pl
118372;biuro@liderds.ostnet.pl
118373;biuro@liderwego.pl
10148240;biuro@logostour.pl
61;biuro@lot.bialowieza.pl
96;biuro@lot.olecko.pl
15;biuro@lot.roztocze.com
77;biuro@lotleba.pl
135;biuro@lotmarina.pl
97;biuro@lotmp.pl
47;biuro@lotmz.org
78;biuro@lot-sercekaszub.pl
125;biuro@lotwokoldrawy.net
37;biuro@lotzakopane.org
118402;biuro@mazowsze.mrot.pl
39;biuro@mazowszeturystyka.net
95;biuro@mazury-zachodnie.pl
118428;biuro@mot.krakow.pl
10162224;biuro@mwsz.edu.pl
93704;biuro@parp.gov.pl
118519;biuro@partnerstwodrawy.org
118520;biuro@partnerstwonajurze.pl
134784;biuro@patrontravel.pl
118527;biuro@perlycn.pl
60950;biuro@pht.pl
138;biuro@plot.poznan.pl
118572;biuro@polcentrum.pl
10144151;biuro@pomerania-travel.pl
117132;biuro@promenadas12.pl
10051115;biuro@przymorze.com.pl
118613;biuro@pttcc.pl
10125779;biuro@pttk.wroclaw.pl
118616;biuro@pttk-gdansk.pl
118617;biuro@pttkkielce.pl
118618;biuro@pttk-kruszwica.pl
41252;biuro@pttklomza.pl
118620;biuro@pttkpiotrkow.nonprofit.pl
118660;biuro@rotwl.pl
118683;biuro@sandrybrdy.pl
29024;biuro@sbt-turysta.pl
161;biuro@skihotel.pl
58;biuro@sot.suwalszczyzna.eu
50368;biuro@spht.pl
116904;biuro@spichlerz.info.pl
33;biuro@szewczyktravel.pl
10178484;biuro@szkolbank.sandomierz.pl
136701;biuro@tsse.pl
162165;biuro@turysta.czest.pl
117220;biuro@turystycznapodkowa.pl
107;biuro@turystyka.konin.pl
48;biuro@turystykaplock.eu
84;biuro@visitbielsko.pl
31;biuro@visitkamienica.pl
140680;biuro@wencel.com.pl
118833;biuro@wotwielkopolska.pl
118842;biuro@wrzosowakraina.pl
117264;biuro@wspolnezrodla.pl
10134833;biuro@wwshe.edu.pl
129861;biuro@wypoczynek.org
116831;biuro@zascianek.org.pl
314789;biuro@zawadzkie.com.pl
32;biuro@zawojakrakus.pl
118898;biuro@ziemiabielska.pl
118899;biuro@ziemiachelmska.pl
118900;biuro@ziemiawielunska.pl
118902;biuro@zlotaziemia.org
52;biuro_it@poczta.onet.pl
10163403;biuroda@awf.gda.pl
124;biurodelfin@poczta.onet.pl
10168490;biuroikar@wp.pl
10040968;biurokanclerza@pwsz.tarnobrzeg.pl
10051304;biurokarier@apsl.edu.pl
118942;biurokot@poczta.onet.pl
118848;biuropodrozyost@xl.wp.pl
10162195;biuro-poloniny@wp.pl
10046949;biurorektora@poczta.wshifm.com.pl
10149394;biurorektora@pwszjar.edu.pl
10111635;biurorektora@wszop.edu.pl
10053531;bkopiszka@bud.pcz.czest.pl
10180290;bkrzesicki@gmail.com
10161043;bkwdowiak@gmail.com
10010815;bluezbig@wsm.szczecin.pl
10151548;bluj@wp.pl
10226925;bncdn@poczta.fm
6099;board@arm.krakow.pl
106;bogdan@jeran.pl
10149445;bogdanik@sthpilsko.com.pl
119225;bor_turystyka@op.pl
10029764;borg@pg.gda.pl
119233;borowna@borowna.pl
119235;bort@krakow.pttk.pl
119236;bort@pttk.kolobrzeg.pl
10047702;bos@uci.agh.edu.pl
119242;bosastopa7@wp.pl
10087042;bozena.jach@bm.cm-uj.krakow.pl
10052713;bozena.kaczmarek@pwsz.pila.pl
10155940;bozena.klebek@bg.agh.edu.pl
10012975;bozena.plodziszewska@interia.pl
10024041;bozena@sbus.pw.edu.pl
119302;bradeli@poczta.onet.pl
119308;bramanabagna@op.pl
10056480;brzozo@onet.eu
10087313;bsliz@up.krakow.pl
10215520;bs-schneider@hotmail.co.uk
10090539;bstronka@gmail.com
74702;btjaworski.turystyka@konin.home.pl
10056796;btpalga@poczta.onet.pl
10130256;budynek@ppwsz.edu.pl
10164417;bugas@regent.uci.agh.edu.pl
10210265;but@but.waw.pl
61956;but@stasinskatravel.pl
36;bzdyk.kazimiera@gmail.com
10137166;camp@post.pl
10104144;cb@pttk.pl
10052713;cburda@pwsz.pila.pl
10136143;celina.witkowska@uwm.edu.pl
10169915;centrum.nauka@neostrada.pl
119434;centrum.turystyki@poczta.pl
10157528;centrumopiekuncze@interia.pl
68;cepr@cepr.pl
119483;chapacz@chapacz.pl
10021484;chemwart@amu.edu.pl
119546;chorzepa@go2.pl
90;cit@pinczow.com.pl
65677;cit@plock.eu
10211757;ckgteam@neostrada.pl
119650;ckpodkarpacie@czudec.pl
10056480;ckpraciborz4154489@poczta.onet.pl
109;cksianow@gmail.com
10196355;cku@darsa.pl
10189306;ckujg@pro.onet.pl
10056480;ckurac-staszek.z@wp.pl
10052664;cmsgdy@wsm.gdynia.pl
10127762;constansmed@neostrada.pl
69827;cross.warszawa@vp.pl
10052713;csk@pwsz.pila.pl
10032355;czasopisma@bg.szczecin.pl
10056480;czeslawrud@wp.pl
80;czestochowa-czot@wp.pl
153585;czorsztyn@pro.onet.pl
10038564;czyt.komp@konin.edu.pl
10172900;czytelnia@chat.edu.pl
10012393;d.mrugacz@am.katowice.pl
10053555;d.pozniak@pwsz.sulechow.pl
10044169;d_julianka@o2.pl
10143793;dan@if.uj.edu.pl
10143793;dan@uj.edu.pl
10045228;danuta.dabek@pwr.wroc.pl
10117970;darek@ife.p.lodz.pl
10160434;dariusz.czaprowski@interia.pl
10131980;darr@darr.pl
73333;darsa@darsa.pl
119774;deblin@lfr.lublin.pl
10153187;dentysta69@op.pl
10182153;detech@sci.pam.szczecin.pl
10038224;dg@asp.waw.pl
10213310;dgbgpam@sci.pam.szczecin.pl
10168671;diir@sgh.waw.pl
10045824;dirplan@ac.pwr.wroc.pl
10163683;djankowski@wott.uw.edu.pl
10011160;dkaminska@ps.pl
10071342;dkaminska@zut.edu.pl
10220670;dokumenty@kormoran-rowy.com
121789;domhor@interia.pl
10052077;dominika.sznajder@gmail.com
10038862;donka_72@tlen.pl
10025400;dorota.wolska@uwm.edu.pl
119929;dorzeczebobrzy1@wp.pl
119930;dorzeczewisloka@op.pl
10042236;dos@up.wroc.pl
119936;dot@dot.org.pl
10074777;dsupera@pw.plock.pl
10175393;dt@hotele-tur.com.pl
69972;duet_@poczta.onet.pl
10155092;duotrans@duotrans.com
171121;dw@bel-ami.pl
147;dwilda@sopot.pl
10059532;dyr.adm@mac.edu.pl
10129122;dyr.admin@pk.edu.pl
10142231;dyr@itc.pw.edn.pl
10142231;dyr@iti.pw.edu.pl
10170601;dyrekcja@trakt.com.pl
10207731;dyrektor @cstr.pl
10153265;dyrektor.gdynia@eksternus.pl
10040045;dyrektor@awf.wroc.pl
120;dyrektor@lotregionkolobrzeg.eu
10049124;dyrektor@rkt.am.lodz.pl
10203641;dyrektor@sebastianeum.pl
10125430;dyrektor@wsp.edu.pl
10013896;dyrektoradm@chopin.edu.pl
10015008;dyrgos@pg.gda.pl
10161043;dyrlog@apnauk.am.wroc.pl
10015008;dystech@sunrise.pg.gda.pl
10083660;dzaop@sci.pam.szczecin.pl
10133146;dzial.adm.gosp@uj.edu.pl
10147876;dzialadministracji@kpsw.edu.pl
10162036;dziecko@amu.edu.pl
10186514;dziekanat@mwsz.edu.pl
10156847;dziekanat@wshe.edu.pl
10028985;dziekanat@wsi.edu.pl
10133182;dziekanat@wsie.pl
10051314;dziekanat@wsm-ciech.com
1080;dziekanat@wstijo.edu.pl
10152943;dziekanat@zwshifm.zgora.pl
10053531;dziek-wb@mib.pcz.czest.pl
10014363;dziewonska@kopalnia.pl
70014;dzimira@wp.pl
10189419;dzk@simr.pw.edu.pl
10134415;dzmlodz@adm.uni.wroc.pl
10037034;dzp@aspt.pl
10035589;dzzn@ue.wroc.pl
10211491;e.bialous@uwb.edu.pl
10011914;e.bobusia@sanatorium-stomil.com.pl
10164238;e.fanslau@amwgdynia.com.pl
10226249;e.jaroszewicz@apedukacja.pl
10138413;e.krzyzanowska@wsb.gorzow.pl
10071468;e.szczepaniak@ae.poznan.pl
123233;ebrup@o2.pl
10170913;ed.jaroszuk@ca.edu.pl
10173711;eden@pro.onet.pl
72;edukacja@powiatsztumski.pl
10049467;edyta.brylska-szmidt@pu.kielce.pl
10043460;edyta19731@wp.pl
120268;ejje@tlen.pl
10090539;ekinel@amp.edu.pl
120310;ekoturystyka@ekoturystyka.org
128;ekowspolnota@interia.pl
10173536;ekuzmicz@elka.pw.edu.pl
105;eliza@aleksander.pl
121855;elm@tlen.pl
10183561;emichalak@interia.pl
10027523;emikolajczyk@amuz.edu.pl
10144026;emila.przadziewicz@uwm.edu.pl
70069;endriu.g@interia.pl
10015009;envirprot@iios.pwr.wroc.pl
10025382;eok@psychologia.uni.wroc.pl
10083660;epanter@pum.edu.pl
10213310;epanter@sci.pam.szczecin.pl
10210548;eradzisz@izwbit.pk.edu.pl
10168966;ergo@ow.poznan.pl
10039209;esosinska@mimuw.edu.pl
10054036;eur@o2.pl
24420;europa@ptkarkonosze.pl
10019770;europark@europark.com.pl
10223390;ewa.b@wsh-leszno.pl
10181873;ewa.deptuch@katowice.arp.com.pl
10214003;ewa.sobocinska@gmail.com
10172136;ewa_jeznacka@sggw.pl
10099300;ewaf@book.uni.opole.pl
10136345;ewaf@uni.opole.pl
10032355;ewaputek@gmail.com
10015008;ewita@pg.gda.pl
10087042;f.stopa@op.pl
121910;farr@farr.com.pl
121911;f-arr@pro.onet.pl
121947;federacja@agroturystyka.pl
10083260;fidos@p.lodz.pl
10033447;filia@jelonek.pwr.jgora.pl
10134415;finanse@wchuwr.chem.uni.wroc.pl
10090392;finprzed@wzr.pl
10045875;firma@mariatravel.com.pl
10195757;fje@el.pcz.czest.pl
10043126;flash@mercury.ci.uw.edu.pl
132;forum@forumturystyki.pl
152;fthremus@interia.pl
120723;fundacja@ae.jgora.pl
70173;fundacja@bilgoraj21.pl
70192;fundacja@katowice.home.pl
120867;fundacja@lgdwieczno.pl
117020;fundacja@naszanadzieja.pl
122384;fundacja2005@tlen.pl
120953;fundacjaczarnoziemnasoli@op.pl
121044;fundacjapttk@poczta.fm
70229;fundacjasbg@gmail.com
121093;fundacjazrt@gmail.com
10151841;furmanski@pwsz.glogow.pl
10222189;g.jolkla@am.gdynia.pl
10129122;g.sskalska@interia.pl
10170913;g.szpringer@ca.pw.edu.pl
10021514;gabriela-dragun@o2.pl
70257;gao@poczta.onet.pl
163561;garr@garr.pl
10168193;gc@puhit.com.pl
129;gci@polczynzdroj.pl
10039209;gendera@mimuw.edu.pl
20;geopark@wp.pl
10169874;gerardaosenica@wsh-kielce.edu.pl
122428;gggbiesz@poczta.onet.pl
122429;ggola@indygo.com.pl
10052532;gibas@uwb.edu.pl
10174325;gim2kon@op.pl
70355;gimnazjum-munina@wp.pl
10013504;ginalski@remzes.umcs.lublin.pl
10098437;gkorz@wsb.torun.pl
70406;gmina@ugczluchow.pl
22313;gml@warr.pl
121595;gok.zbojna@2com.pl
85;goloborze@wp.pl
10032933;gosia@parr.slupsk.pl
10035535;goskalew68@interia.pl
10018730;gospar@pg.gda.pl
117050;got@got.gdansk.pl
63;got@visitgdansk.com
55;grand@grand200.pl
10101558;grazyna.hennel@wp.pl
10199476;grazynacitko@wp.pl
10087042;grochot@adm.uj.edu.pl
121645;grodowczyk@op.pl
10014878;grom@pb.edu.pl
10092345;gromadz@ae.katowice.pl
10038564;gromadzenie@konin.edu.pl
10198412;gromadzenie@ksw.edu.pl
10238554;grzegorz.ciesielski@handlowa.eu
10202910;grzegorz.gramza@put.poznan.pl
10089814;grzegorz.kozlowski@pwr.wroc.pl
10129424;grzegorz.zebrowski@replay.olsztyn.pl
121684;grzesiu-k@wp.pl
121705;gstturmor@gmail.com
10164234;gt@pwsz.elblag.pl
400189;gwarek@gat.pl
10194551;gyyy@wp.pl
10034649;h.dasler@il.pw.edu.pl
10110232;h.godlewski@gmail.com
10023856;h.godlewski@wip.pw.edu.pl
10070373;h.michalak@mail.adm.uz.zgorza.pl
10049467;halina.gasior@pu.kielce.pl
10193915;henryk.charun@tu.koszalin.pl
123040;hkt97fo@wp.pl
10130320;hlis@inmat.pw.edu.pl
22;hlyskawa@onet.eu
159142;hotel@albatros.przemysl.pl
10051692;hotel@awf.katowice.pl
139871;hotel@gryfia-mazur.pl
10028196;hotel@hotel-katowice.com.pl
51276;hotelturysta@op.pl
70546;hryszkiewicz@wp.pl
10135085;i.mrozinska@majka.edu.pl
10181629;ib@pw.plock.pl
10183689;ib@univ.gda.pl
10156687;iget@o2.pl
10189152;ikabo@ch.pw.edu.pl
140;ilonawawerko@gmail.com
10177817;imsi@p.lodz.pl
10042021;infnauk@sgh.waw.pl
123240;info.warsaw@estiem.org
123250;info@agroturystyka.pl
123251;info@agroturystyka-wieruszow.pl
10033525;info@ap.krakow.pl
10015055;info@asp.wroc.pl
10206259;info@europeforyou.pl
123381;info@fednat.pl
141;info@it.mragowo.pl
64;info@kociewie.eu
13;info@kraina.org.pl
123518;info@lot.kaszuby.pl
17;info@lotkrasnystaw.pl
123520;info@lrot.pl
38;info@madeinzakopane.pl
129860;info@mcit.pl
123578;info@om.pttk.pl
123582;info@orot.pl
123412;info@oskar.com.pl
123616;info@poland.eceat.org
10013780;info@pou.pl
67816;info@rarr.rzeszow.pl
14;info@roztocze.org
10203641;info@sebastianeum.pl
123682;info@sleza.pl
123707;info@stspomerania.org
103;info@szlakpiastowski.com.pl
123735;info@trzykrajobrazy.pl
123741;info@turystykabezbarier.info
10189938;info@uluizy.pl
49;info@warkoczpilicy.pl
154095;info@warp.org.pl
130;info@wlot.org
10054814;info@wodnik.pl
156;info@wrotakarpat.com
10101682;info@wsbip.edu.pl
10143171;info@wsez.pl
10139783;info@wss.edu.pl
123787;info@wssto.pl
123807;info@zlotakaczka.waw.pl
123809;info@zrot.pl
10033710;infobib@ap.siedlce.pl
123851;informacja@duszniki.pl
127;informacjapolczyn@wp.pl
10094601;informatyka@achilles.wam.lot.pl
10125012;inkubator@wisbiop.pl
10161043;inspoc@adm.am.wroc.pl
10032673;instytut@wszrze.edu.pl
10139783;intcoop@wsse.edu.pl
10016235;inwest@kul.lublin.pl
10040045;inwestycje@awf.wroc.pl
10139803;inwestycje@pwsw.pl
10091775;irena.perzyna@p.lodz.pl
13776;it@intur.com.pl
124012;it@lot.roztocze.com
124013;it@mikolajki.pl
10152921;it@naturatour.pl
124014;it@prot.gda.pl
10022385;it@pwsz.krosno.pl
148;it@sopot.pl
137;it@szlakpiastowski.com.pl
124015;it@um.slupsk.pl
4;it@um.swidnica.pl
159105;itabia@wp.pl
10168321;itlims@meil.pw.edu.pl
10162036;iwon77@amu.edu.pl
10059796;iwona.dalati@tu.koszalin.pl
10030030;iworzab@ukw.edu.pl
10052557;j.czekaj@pswbp.pl
10015502;j.jonak@pollub.pl
10230069;j.kalisz@wseit.edu.pl
101;j.mazurczak@plot.poznan.pl
10032933;j.niski@parr.slupsk.pl
10070373;j.ostrowski@adm.kz.zgora.pl
168;j.piekunko@um.swidnica.pl
10014878;j.putko@pb.edu.pl
10196355;j.samek@darsa.pl
10052713;j.skrobot@pwsz.pila.pl
10016518;j.szafranski@ca.pw.edu.pl
10134481;j.wojtasik@pwsz.elblag.pl
10044169;jacek.bernacik@swps.edu.pl
10218093;jacek.kalinowski@finansus.pl
10140006;jacek.walasa@wszkipz.pl
10129122;jacek_p@pk.edu.pl
10127762;jan.bertrand@wum.edu.pl
10038567;janczaj@wsfiz.edu.pl
10158026;janihali@uni.wroc.pl
10012683;janik@libsru.ar.szczecin.pl
10166173;janj@uwm.edu.pl
10178561;janmak1@o2.pl
10021484;janusz.karp@amu.edu.pl
10129424;janusz.saba@uwm.edu.pl
10103860;janusz@bg.ar.wroc.pl
10038567;janusz@wsfiz.edu.pl
10013896;jarmutaj@chopin.edu.pl
99;jaroslaw.kogut@powiatlidzbarski.pl
10091956;jaroslaw.mika@katowice.arp.com.pl
10169725;jasier@uni.lodz.pl
10125806;jasinski@vizja.pl
10014053;jasinski_roman@interia.pl
10158006;jasistef@agh.edu.pl
10089275;jasma@um.edu.pl
10049420;jcieslin@pg.gda.pl
10173741;jedrzej81@o2.pl
136;jeran@oborniki.info
10025400;jez.@uwm.edw.pl
167;jkslowinski@wp.pl
10040125;jlatosin@tu.kielce.pl
10049921;jmachowski@slam.katowice.pl
10106365;jmietkiewicz@ar.krakow.pl
10218841;jmolka@jezuici.pl
10070317;joanna.kalkowska@put.poznan.pl
10089751;joanna.pietrzak@wsth.pl
10042533;joannaw@am.gdynia.pl
10014929;jolanta.wlazlo@polsl.pl
10042533;jolkla@am.gdynia.pl
10044169;jsciepurko@swps.edu.pl
10052713;jskrobot@pwsz.pila.pl
10110635;jszczecinska@swspiz.pl
124398;jurajskaorg@wp.pl
10136703;justyna.stepien@lazarski.edu.pl
124432;jzebrowskipl@gmail.com
10051692;k.barczak@awf.katowice.pl
10014096;k.granacka@pwsz.elblag.pl
10150988;k.korzeniewicz@aon.edu.pl
10070373;k.majewski@adm.uz.zgora.pl
124454;k.nowacki@kijewo.pl
10079380;k.olesinska@ajd.czest.pl
10128915;k.piatek@wso.wroc.pl
10147876;k.sieg@kpsw.edu.pl
10094601;k.sobczak@achilles.wam.lodz.pl
10170913;k.sucharda@ca.pw.edu.pl
10016518;ka@ca.pw.edu.pl
10197653;kalisz@cosinus.pl
10023679;kancelaria@amuz.lodz.pl
10140712;kancelaria@cm.umk.pl
10052346;kancelaria@pwsz.com.pl
10053555;kancelaria@pwsz.sulechow.pl
10175972;kancelaria@seminarium.org.pl
10046999;kancelaria@wsei.krakow.pl
10131254;kancelaria@wsh-kielce.edu.pl
10079380;kanclerz@ajd.czest.pl
10130258;kanclerz@gwsh.gda.pl
10162224;kanclerz@mwsz.edu.pl
10040006;kanclerz@pwsz.kalisz.pl
10135114;kanclerz@pwszciechanow.edu.pl
10152943;kanclerz@zwshifm.zgora.pl
10045592;kapr@au.poznan.pl
10136345;karbowicz@uni.opolski.pl
124613;kargusjj@gazeta.pl
124614;kariery@byd.pl
10091956;karol.osadnik@katowice.arp.com.pl
163563;karrsa@karrsa.pl
10051267;karsa@kar.koszalin.pl
10218188;kasiaolkusz1@o2.pl
10129424;katarzyna.bartnik@uwm.edu.pl
87;katarzyna.batko@koncept.biz.pl
122872;katedal@op.pl
10040045;katedra.fdnr@awf.wroclaw.pl
10015008;katpi@pg.dga.pl
10146436;katran@sgh.waw.pl
124659;kawaleria21pun@wp.pl
10208410;kbocz@p.lodz.pl
10207414;kcktmiop@prz.edu.pl
10032215;kcybulski@mail.wz.uw.edu.pl
142;kierownik@it.mragowo.pl
10070583;kip@ath.bielsko.pl
10089275;kisiel@uwm.edu.pl
10036812;kizop@sggw.pl
10168433;kjakubowska@ar.krakow.pl
10087042;kjanas@geo.uj.edu.pl
10212835;kkiercel@wp.pl
10086971;kklukowski@wp.pl
124828;kkptg@interia.pl
10053554;kkpwsz@go2.pl
124846;klar1@o2.pl
10112137;klinika.rehabilitacja@am-uj.krakow.pl
10087042;klinika.rehabilitacji@cm-uj.krakow.pl
10038639;klopotbo@po.opole.pl
124902;klub@bystrze.org
10192961;kmbibr@up.poznan.pl
125017;kmt.grzmot.odrodzenie@gmail.com
10175103;knh@awf.edu.pl
10127928;koks@au.poznan.pl
10101558;kolegiumzawisza@tlen.pl
125071;kolodrom@op.pl
50;kolot@op.pl
126804;kontakt@aniafilip.net
153357;kontakt@kletno.pl
34;kontakt@krot.org.pl
30284;kontakt@larr.lodz.pl
163069;kontakt@msport.gov.pl
125208;kontakt@przystan.org.pl
125255;kontakt@ziemiagdanska.pl
10050264;korecka@agh.edu.pl
10021514;korenspondencja@marcinoleksy.pl
10049124;koroscik@rkt.am.lodz.pl
10023175;kosakles@utp.edu.pl
10012364;kozak@agh.edu.pl
10027880;kpg@novci1.ae.poznan.pl
121;kraina@stepnica.org.pl
10200028;krajtur@poczta.onet.pl
76499;krasnik@lfr.lublin.pl
125499;kruklanki@o2.pl
10154807;kryczka@p.lodz.pl
71162;krys.p@interia.pl
10144198;krysia@pwr.wroc.pl
10145725;krystyna.karbownik@polsl.pl
10054601;krystyna.pogoda@up.wroc.pl
10049919;krystyna.szewczyk@ue.wroc.pl
10012364;krzysztof.lampa@agh.edu.pl
10145725;krzysztof.matlak@polsl.pl
10035589;krzysztof.stypula@ue.wroc.pl
10070651;krzysztof.zywicki@put.poznan.pl
50242;krzysztof@przekop.pl
10020115;krzysztofj@cm-uj.krakow.pl
10161054;ksiazki@umk.pl
10057370;ksiegowosc@euh-e.edu.pl
10180288;ksiegowoscwstijo@o2.pl
10129176;ksygit@us.edu.pl
10170913;kt@ca.pw.edu.pl
125921;ktpnaszachata@interia.pl
125929;ktwceluloza@wp.pl
125942;kuczewska@post.pl
10016235;kul@lublin.pl
125989;kuryly@poczta.onet.pl
126005;kwatera@onet.pl
149;kwatery@sopot.pl
10182542;kwestura@pwszplock.pl
10051857;l.miotke@koscierzyna.pl
10034649;l.rozek@il.pw.edu.pl
10116904;l.szlachta@po.opole.pl
126079;lasovia@gmina.niwiska.pl
71327;latarniczek@o2.pl
154440;lct@abra.lublin.pl
126110;leczna@lfr.lublin.pl
10054900;lemax@mierzeja.pl
10019413;lenartowicz@wszif.edu.pl
10060224;leslaw.sieniawski@pwr.wroc.pl
10135132;leszek.szajna@pwsz.raciborz.edu.pl
10127411;leszekd.@onet.eu
126163;lgd.biebrza@op.pl
126164;lgd.czarnkow@wp.pl
126165;lgd.lubaczow@gmail.com
126166;lgd.opolelubelskie@gmail.com
126167;lgd.prowent@interia.pl
126168;lgd.swu@wp.pl
126169;lgd.trzydoliny@gmail.com
126170;lgd.ztradycjawnowoczesnosc@gmail.com
126171;lgd@barczewo.pl
126172;lgd@borytucholskie.pl
126173;lgd@checiny.pl
126174;lgd@dolinagrabi.pl
126175;lgd@drzewica.pl
126176;lgd@lgd-brynica.pl
126177;lgd@lgdgniazdo.pl
126179;lgd@nida.pl
126182;lgd@puszczaknyszynska.org
126183;lgd@wstega-kociewia.pl
126184;lgd@ziemiagotyku.com
126187;lgdbadzmyrazem@gmail.com
126188;lgdbrodnica@wp.pl
126189;lgddolinadrwecy@neostrada.pl
126192;lgdnisko@wp.pl
126193;lgdodra@op.pl
126194;lgdpm@wp.pl
126195;lgd-przymierzejeziorsko@wp.pl
126196;lgdswiecie@op.pl
126197;lgdzapilicze@poczta.onet.eu
126198;lgdzielonebieszczady@wp.pl
10180999;library@pg.gda.pl
10099300;library@uni.opole.pl
10116584;library@wsinf.edu.pl
10182542;liceum.pwszplock@op.pl
10184535;liceum@alo.rzeszow.pl
10182542;liceumpwszplock@op.pl
126217;lider@dobrzany.pl
10224519;lidia.liberkowska@akademickie.edu.pl
10045379;ligarski@polsl.gliwice.pl
126233;likos@radlin.pl
10021514;lillipan@yahoo.co.uk
126272;litewska@pttk.com.pl
126276;liwa@kwidzyn.pl
10070583;llinek@ath.bielsko.pl
165;llot.info@gmail.com
10129844;logos-kr@hotel-logos.pl
126426;lot.lancut@gmail.com
94;lot.morag@op.pl
10;lot.paluki@znin.pl
113;lot.pd@op.pl
11;lot.pojezierzebrodnickie@op.pl
56;lot.przemysl@onet.eu
23;lot.spala@gmail.com
139;lot.warmia@wp.pl
89;lot.wloszczowski@op.pl
126428;lot@beskidniski.org.pl
119;lot@bornesulinowo.pl
112;lot@czaplinek.pl
65;lot@krynicamorska.pl
24;lot@leczyca.info.pl
3;lot@lotaw.pl
5;lot@lottorun.pl
100;lot@mazury.pl
88;lot@mocponidzia.pl
25;lot@o2.pl
133;lot@powiatlobeski.pl
108;lot@puszczapyzdrska.com
2;lot@szklarskaporeba.org
116;lot@turystykalobeska.pl
66;lot@ziemiagdanska.pl
92;lot_powiatunidzickiego@op.pl
146;lot_sztutowo@o2.pl
59;lot_ziemialomzynska@wp.pl
98;lot-kzw@wp.pl
159;lotpm01@gmail.com
143;lotsandomierz@gmail.com
45;lotskarbiecmazowiecki@gmail
.com
75;lotsztutowo@mierzeja.pl
30;lotto@wp.pl
62;lotwgl@wp.pl
79;lotzl@wp.pl
157;ltomaszkiewicz@op.pl
126484;lubartow@lfr.lublin.pl
142930;lublin@almatur.pl
10193489;lubon2@o2.pl
10049465;lukas2310@wp.pl
126555;lukow@lfr.lublin.pl
10028583;luscinskateatr@wp.pl
10048228;lwoj@law.uni.torun.pl
126617;m.bamber@pf.pl
139720;m.korpula@armsa.pl
10070583;m.pasik@ath.bielsko.pl
10170913;m.pawelec@ca.pw.edu.pl
10015502;m.podniesinska@pdlub.pl
10172900;m.poplawski@chat.edu.pl
10125012;m.sas_badowski@op.pl
10135445;m.serwin@cyfronet.krakow.pl
126662;m.szostak@podhalanska.pl
10110551;m.wilczewski@ug.edu.pl
10040183;m.wojciechowska@ae.poznan.pl
10041587;m.wszola@wspa.lublin.pl
10036679;m.zajac@ar.krakow.pl
126685;ma_plewa@poczta.onet.pl
10139526;maciej.dabrowski@uw.edu.pl
10145725;maciej.gawronski@polsl.pl
126701;maciols@gmail.com
10022385;mackru@pwsz.krosno.pl
10035589;magdalena.dolata@ue.poznan.pl
10117970;magdalena.konat@p.lodz.pl
10186177;magdalena.narloch@pg.gda.pl
10215820;majkaduda@poczta.onet.pl
10169915;malgorzata.leniec@poczta.onet.pl
35;malgorzatalojewska@wp.pl
10033228;malgorzatar@wseiz.pl
10151783;manage@wsz-sw.edu.pl
10042533;manager@wpit.am.gdynia.pl
10044169;marcin.mystkowski@swps.edu.pl
10092345;marcin.zieba@ue.katowice.pl
169;marczewski.m.87@gmail.com
10087042;marek.ulinski@uj.edu.pl
24211;marek@3bk.com.pl
10052077;marekglo@ck-sg.p.lodz.pl
10162436;marekpycka@onet.eu
130280;marg@myslenice.pl
10145725;maria.janik@polsl.pl
10161054;maria.lemanska@uni.torun.pl
10218924;maria.pietrzak@sgh.waw.pl
10145497;maria.rog@gmail.com
10030988;marian.dabrowski@wsiie.olsztyn.pl
10014363;mariola.kaczor@kopalnia.pl
10189772;marketing@nova.edu.pl
10026849;marketing@pht.pl
10162436;markowiceinfo@gmail.com
163449;marr@marr.pl
10119055;marzanna@pwr.wroc.pl
126932;mazurskakraina1@wp.pl
10142303;mb@amu.edu.pl
10032305;mba@sus.univ.szczecin.pl
10153192;mbrzezinski@wat.edu.pl
10181077;mbujnowska@poczta.onet.pl
10034347;medrat@umwb.edu.pl
10199476;medstuzaw@wp.pl
151427;meduza.sur@home.pl
10174993;mgawronski@polsl.pl
10111635;mgromek@wszop.edu.pl
127316;mhaj@interia.pl
127338;michail-s@hoga.pl
127355;miechowjaksa@home.pl
10153188;mieczyslaw.wila@wsl.com.pl
10038224;mik@asp.waw.pl
10013476;miller@bg.pw.edu.pl
10125833;mimar@erl.edu.pl
127398;minosoma@interia.pl
10091956;miroslaw.skibski@katowice.arp.com.pl
16;misiak.boguslaw@gmail.com
162;mkawecka@krot.org.pl
127444;mkimmel@wp.pl
127503;mkt.lublin@op.pl
10092345;mkubista@ae.katowice.pl
10049205;mmankowska@wi.ps.pl
10187010;mmilc@wse.krakow.pl
10032721;mokolajk@derrata.com.pl
10099586;moller@ichip.pw.edu.pl
10055979;monika.downar@univ.gda.pl
10014363;monika.kaczor@kopalnia.pl
10148240;monika.perzyna@logostour.pl
10119425;monika.raczynska@uwm.edu.pl
127603;monodr@zetobi.com.pl
10235756;moonia007@interia.pl
127641;morawskiewrota@onet.eu
127644;morski@gdynia.pttk.pl
71862;motorowodne@janikowo.info.pl
10021484;mp.pospiech@gmail.com
10133146;mphankus@cyf-kr.edu.pl
10237163;msaidi@dmcs.p.lodz.pl
10237164;msaidi@dmcs.pl
10159446;mskidn@adm.pcz.czest.pl
10187010;mskrobiszewska@wse.krakow.pl
10015055;mso@asp.wroc.pl
10032137;mstarega@wsfiz.siedlce.pl
10141853;mterndowicz@cbm.pan.pl
10184535;mwendland@wsiz.rzeszow.pl
10153186;n_dokowicz@o2.pl
10044169;n_o_x@vp.pl
41;nadbuzanskalot@wp.pl
127859;nadbzura@gmail.com
125664;nadpilica@xl.wp.pl
21;negotiumconsulens@tlen.pl
127059;nit@mnet.pl
10208410;niziolek@p.lodz.pl
10038602;nkjocieszyn@wp.pl
29012;nowysacz.bt@gromada.pl
10125959;nwsp@nwsp.bialystok.pl
128106;nyczm@ustka.org
10162994;nzozmazowsze@zdrowotel.pl
10162994;nzozmazowsze@zwmazowsze.pl
128129;oakrakow@oakrakow.pttk.pl
10153347;ob20@poczta.onet.pl
10025382;obuwr@biol.uni.wroc.pl
10110551;ocerk@univ.gda.pl
128192;oddzial@pleszew.pttk.pl
170;office@ksiaz.walbrzych.pl
10137545;office@oxford.pl
94075;office@parr.slupsk.pl
10059908;office@pau.krakow.pl
46;office@wot.waw.pl
10019211;office@wsb-nlu.edu.pl
10070317;office_me@put.poznan.pl
10012342;office_wmmv@put.poznan.pl
10136415;ofice@biznes.edu.pl
125733;ogniwo@onet.eu
10021484;olagreen3@wp.pl
10208410;olapolak@p.lodz.pl
127612;olbrzym@szpakowski.pl
10153188;olgakucharska@wp.pl
10012975;olgaszulc@gmail.com
128382;olopttk@wp.pl
10052582;olsztyn@wsptwp.eu
10145725;op@polsl.pl
54;organistowka@gmail.com
72176;osinskib@toya.net.pl
72189;osir5@wp.pl
125790;ostromeczyn@o2.pl
131930;osuch1@o2.pl
10160434;osw@osw.olsztyn.pl
10128915;os-wsowl@wp.pl
10073006;otek.waldi@wp.pl
153603;otn@mosornygron.pl
128823;owpttksow@wp.pl
10075230;owsiiz@owsiiz.edu.pl
128834;oziemiapttk@wp.pl
10170913;p.kosieradzki@ca.pw.edu.pl
10164259;p.slubowski@wsd.gda.pl
10134042;pamctr@krysia.uni.lodz.pl
10168472;panda@net2u.pl
10168472;panda@netzu.pl
132945;part@part.com.pl
67711;partner@karr.pl
10137889;paszotta@uwm.edu.pl
10013896;pawels@chopin.edu.pl
128964;pawgra@interia.eu
128974;pbt_pttk_trakt@trakt.com.pl
10020670;pduksa@uwm.edu.pl
10133146;pelnomocnicy.rektora@cm-uj.krakow.pl
129086;perlajury@lazy.pl
10044296;ph@p.lodz.pl
10226778;pijet.krzysztof@wp.pl
10054929;pilawae@wsew.edu.pl
10101413;pilsko@gat.pl
10025400;piosiw@gmail.com
10089275;piotr.drogosz@uwm.edu.pl
10127762;piotr.markiewicz@am.edu.pl
10151783;piotr.szewczyk@wsz-sw.edu.pl
10052077;piotr.torzecki@p.lodz.pl
10172548;piotr.urbaniak@wzieu.pl
160815;plan@plan.jgora.pl
10014311;plowicki@ds1.uw.edu.pl
10180999;pmaja@pg.gda.pl
10021484;poczchem@amu.edu.pl
129231;poczta@bielsko.pttk.pl
129237;poczta@brodnica.pttk.pl
129242;poczta@dabrowa-gornicza.pttk.pl
129276;poczta@jaworki.pl
10169446;poczta@ke.edu.pl
129289;poczta@lgdrazem.pl
129293;poczta@mazury.pttk.pl
129308;poczta@omzgora.pttk.pl
129315;poczta@pila.pttk.pl
151607;poczta@pttk.pl
129330;poczta@pttk-sandomierz.pl
129336;poczta@razem-dla-rozwoju.pl
13942;poczta@suwalki.pttk.pl
72382;poczta@um.lubartow.pl
129381;poczta@walbrzych.pttk.pl
129383;poczta@wloclawek.pttk.pl
129406;podbabiogorze@op.pl
129415;podlasie@agroturystyka.pl
129417;podlaskieit@podlaskieit.pl
10023658;point@point.travel.pl
10224151;policealna-elk@tlen.pl
10033525;polon@ap.krakow.pl
129489;polskie.towarzystwo.turystkrajoznawcze@nestrada.pl
10126688;pomcert@univ.gda.pl
129622;porazinskit@op.pl
54338;pot@pot.gov.pl
10073006;pprzybyl@am.gdynia.pl
10041366;pprzybyl@wsm.gdynia.pl
10130256;ppwsz@ppwsz.edu.pl
10033525;prenczas@tessa.ap.krakow.pl
10033710;prenum@uph.edu.pl
129974;prezes@agroturystyka.pl
117;prezes@forumturystyki.pl
129982;prezes@jaroslawiec.pl
10207689;profesja2005@interia.pl
164;profesor.sawicki1@gmail.com
10244406;projekt@wsmw.edu.pl
130062;promcja@rudniki.pl
150;promocja@jastarnia.pl
153;promocja@powiat-gdanski.pl
129838;promocja@powiatwolsztyn.pl
10039183;promocja@pwsz.edu.pl
129844;promocja@sianow.pl
117794;pronig@pro.onet.pl
10025801;przemoda@aci.pl
151;przemyslawrakowski@wp.pl
129949;przewodniklubuski@wp.pl
10134302;przybor@adm.uni.wroc.pl
10048596;przybylak@ichip.pw.edu.pl
130194;przystan@kolo.lm.pl
130497;pttk.baildon@op.pl
130499;pttk.klub.pow@wp.pl
130500;pttk.krowiabrama@op.pl
130501;pttk.lodz@wp.pl
130502;pttk.luban@interia.pl
130503;pttk.wadowice@gmail.com
130504;pttk.zamosc@pro.onet.pl
130505;pttk.zdwola@wp.pl
130506;pttk.znin@neostrada.pl
130507;pttk@azoty.tarnow.pl
130508;pttk@ciechanow.pl
130509;pttk@infolegnica.pl
130510;pttk@is.net.pl
130511;pttk@jaskinia.pl
130512;pttk@konet.pl
130513;pttk@ladek.com.pl
130514;pttk@onet.pl
130516;pttk@pttk.katowice.pl
130517;pttk@pttk.nowytarg.pl
43280;pttk@sanok.com.pl
130518;pttk@trojmiasto.pl
130519;pttk@wisla.pl
130520;pttk_elblag@wp.pl
130521;pttk_gorlice@interia.pl
130522;pttk_hajnowka@op.pl
130523;pttkbialystok@o2.pl
130524;pttkbiuro@ta.pl
130525;pttkbochnia@interia.pl
130526;pttkbusko@gmail.com
130527;pttkchelm@wp.pl
130528;pttkcieszyn@poczta.fm
43642;pttkino@wp.pl
130530;pttkjaslo@wp.pl
130532;pttklancut@wp.pl
130533;pttklask@poczta.onet.pl
130534;pttkleczyca@poczta.onet.pl
130535;pttklipsko@wp.pl
130536;pttklublin@wp.pl
130537;pttk-olawa@wp.pl
130538;pttkostrow@interia.pl
40943;pttk-plock@wp.pl
130539;pttkregczwa@op.pl
130540;pttkstargard@stargard.mm.pl
130541;pttkwegrow@op.pl
130542;pttkzarnow@wp.pl
130543;pttkzarzad@o2.pl
130544;pttkzlotow@kki.net.pl
10174061;pul@tlen.pl
10023175;pwoj@utp.edu.pl
10177404;pwrf3wch@pwr.wroc.pl
10139803;pwsw@wp.pl
10134481;pwsz@pwsz.elblag.pl
10022385;pwsz@pwsz.krosno.pl
10035084;pwsz@pwszjar.edu.pl
10135132;pwszwraciborzu@pro.onet.pl
145;r.gaik@wp.pl
130706;r.karp@campa.pl
130708;r.kreczmanski@warka.org.pl
10220670;r.lozinska@kormoran-rowy.com
10230069;r.nowicka@wseit.edu.pl
10025400;r.zrobek@uwm.edu.pl
10171229;r.zyla@uw.edu.pl
72611;r_oman@poczta.onet.pl
10229128;radek@judofightclub.pl
10245990;radlinski@poczta.onet.eu
130771;radziejow@lgd.com.pl
130777;radzynpodlaski@lfr.lublin.pl
10012364;rafal.kocierz@gmail.com
10091956;rafal.soltys@katowice.arp.com.pl
130784;rajder.opole@o2.pl
51326;rarr@rarr.pl
130835;razemnaszlaku@interia.pl
10092214;rb1@polsl.pl
130858;rcie_ostroleka@arrmpw.org.pl
138264;recepcja@dwkolejarz.pl
10154355;recepcja@hotelblonie.pl
10135909;recepcja@hotelszarotka.pl
128356;recepcja@sudety-pokrzywna.pl
10162994;recepcja@zdrowotel.pl
10162994;recepcja@zwmazowsze.pl
10013504;rector@ramzes.umcs.lublin.pl
10073006;redakcja@e-marketing.pl
102;region@leszno.pl
10012975;reh.bart@gmail.com
10217316;rehabilitacja@rehabilitacja.net.pl
10152950;rek@wssg.edu.pl
10110551;rekjj@univ.gda.pl
1079;rekrutacja@wstih.pl
10040603;rekt-dp@uwb.edn.pl
10126916;rektor@adm.pcz.czest.pl
10014053;rektor@pwsos.pl
10143122;rektor@wss.edu.pl
10116514;rektor@zpsbszczecin.pl
10192240;rektorat@alk.edu.pl
10028583;rektorat@at.edu.pl
10053412;rektorat@awf-bp.edu.pl
10057370;rektorat@euh-e.edu.pl
10025727;rektorat@gwsh.pl
10053554;rektorat@kk.j.gora.pl
10053554;rektorat@kk.jgora.pl
10023801;rektorat@kupiecka.pl
10059532;rektorat@mac.edu.pl
10110635;rektorat@swspiz.pl
10025382;rektorat@um.wroc.pl
10040603;rektorat@uwb.edu.pl
10118926;rektorat@wsa.edu.pl
10182602;rektorat@wsbio.waw.pl
10033228;rektorat@wseiz.pl
10191209;rektorat@wwsh.edu.pl
10032765;rektort@wsehsk.home.pl
10219917;rektt@ug.edu.pl
10189488;rekug@univ.gda.pl
10051813;renata.janczak@arrkonin.org.pl
10025036;renatka7@2com.pl
130974;retrostowarzyszenie@wp.pl
10129122;rio@pk.edu.pl
10209140;ritawieczorek@o2.pl
10234117;rjp@polsl.pl
10127289;rjp3@pdsl.pl
10136497;rlasecki@wp.pl
10015506;rlew@cc.uni.torun.pl
10183925;robert@asp.pl
131083;rot@swietokrzyskie.pl
10207414;rraparat@prz.rzeszow.pl
110;rs@parseta.org.pl
10151852;rsw@rsw.edu.pl
10574;rturysta@triada.pl
10135084;rwawrzyniak@susostrow.com.pl
10071859;rysmos@mech.pk.edu.pl
10035589;rzecznik@ae.wroc.pl
10161638;s.administracji@ur.krakow.pl
10170913;s.borzemski@ca.pw.edu.pl
10051267;s.brzechwa@karr.koszalin.pl
10133146;s.klaniecki@uj.edu.pl
10128915;s.kulaga@wso.wroc.pl
10021551;s.urbanczyk@zarr.com.pl
10138853;sabiniarz@handlowa.eu
10135207;salastowiczj@pwsz.legnica.edu.pl
10014363;sanatorium@kopalnia.pl
47313;sarl@sarl.pl
136715;sarr@sarr.com.pl
163564;sarr@sarr.org.pl
10032349;satnislaw.krystkiewicz@put.poznan.pl
10161043;sckiejna@psych.am.wroc.pl
72768;scop@um.sosnowiec.pl
10231054;sebi@epf.pl
10139342;sekcjagosp@mail.wz.uw.edu.pl
10161043;seklog@apnauk.am.wroc.pl
10167531;sekoce@pg.gda.pl
10053563;sekret.biblio@cm.umk.pl
10030148;sekretaria@rarinwestor.pl
10127762;sekretariat.nzg@wum.edu.pl
85468;sekretariat@argkw.pl
66948;sekretariat@arp.gda.pl
127646;sekretariat@centrum.ng.pl
130169;sekretariat@duchgor.org
10153265;sekretariat@externus.pl
10038294;sekretariat@hermes.wsjoe.czest.pl
10027404;sekretariat@hotel.internetdsl.pl
10175393;sekretariat@hotele-tur.com.pl
10229114;sekretariat@ii.uph.edu.pl
129142;sekretariat@itk.krakow.pl
10135085;sekretariat@majka.edu.pl
126;sekretariat@marinas.pl
10038862;sekretariat@medyk.olsztyn.pl
10038862;sekretariat@medykosztyn.pl
10169915;sekretariat@nauka.pila.pl
71;sekretariat@poeksit.czluchow.org.pl
131783;sekretariat@powislanskalgd.pl
41496;sekretariat@puhit.com.pl
10181899;sekretariat@put.poznan.pl
10155012;sekretariat@pwsz-oswiecim.pl
131847;sekretariat@spichlerzzulawski.pl
72902;sekretariat@sto64.krakow.pl
114;sekretariat@szlot.pl
78868;sekretariat@tarr.org.pl
10182602;sekretariat@usbio.waw.pl
131926;sekretariat@warsawtour.pl
10178668;sekretariat@wsge.edu.pl
10041587;sekretariat@wspa.lublin.pl
10047176;sekretariat@wssm.edu.pl
10019413;sekretariat@wszif.wroc.pl
10134833;sekretariat@wwshe.edu.pl
10052596;sekretariat@zaczek.pw.edu.pl
10170871;sekretariathotel.centrum@gromada.pl
10059318;sekretariatkanclerza@o2.pl
10228393;sekretariat-ronin@tlen.pl
132006;sekretarz@hrubieszow-gmina.pl
10181629;serafin@onet.pl
10012683;serafin@zut.edu.pl
1;sgzk@ziemia.klodzka.pl
10141363;siemian@o.w.l.au.poznan.pl
10166880;siemian@owl.am.poznan.pl
72983;siwinski@tir.awf.poznan.pl
127207;sk.bar@zielman.pl
10142046;sk@pwsh.edu.pl
10087042;skarbek@adm.uj.edu.pl
67;skotawsko@onet.eu
132283;skt.sekstant@vp.pl
132284;skt@free.ngo.pl
132339;slomka@geoturystyka.pl
104;slupca_slot@poczta.onet.pl
132414;smrek1@poczta.onet.pl
10163514;sobiechanna@wp.pl
132509;sokolowka@gmail.com
111;sot.swinoujscie@gmail.com
122;sotstargard@gmail.com
132638;sp@sulnet.pl
10182153;specbhp@pum.edu.pl
10028109;spr@it.pw.edu.pl
27;srebrob@wp.pl
73353;srkftion@neostrada.pl
133094;srrrsid@interia.eu
133098;srtw1@wp.pl
10087313;sslezak@up.krakow.pl
10133182;sslo@wsie.pl
133405;sst_lubcza@wp.pl
10139526;sstaszak@uw.edu.pl
10170839;sszklarz@op.pl
128762;stadnina_bogumilow@op.pl
10191218;stajniagrazyny@o2.pl
10158071;stajniaiskra@o2.pl
10153288;stanislaw.kwasniowski@pwr.wroc.pl
51;stanislawroman@interia.pl
133459;staraplebania@interia.eu
10202562;stas_kat@interia.pl
10056480;staszek-zelmanski@wp.pl
10086971;stefan.zalewski@awf.edu.pl
21158;stg@pro.onet.pl
133705;stirk@vp.pl
133708;stk@kaszuby.com.pl
133861;stowarzyszenie.lgd@wp.pl
134024;stowarzyszenie@nautica.pl
134036;stowarzyszenie@podziemia.pl
134042;stowarzyszenie@post.pl
134085;stowarzyszenie@turystadolnoslaski.anv.pl
134194;stowarzyszeniegorystolowe@wp.pl
134310;stowgmin@wp.pl
73476;stpromocja@op.pl
133156;strzecha@wakacje.agro.pl
74;sts@sopot.pl
133175;sttw@free.ngo.pl
10242532;stud_med_gliwice@op.pl
10217770;studium.medyczne@wp.pl
10204909;studium@medyk-elblag.pl
133191;stwbaltyk@o2.pl
151204;sur@ld.home.pl
134458;swietochlowice.pttk@interia.pl
134503;swrt@swrt.pl
10218019;swspiz-kg-biblioteka@wp.pl
134517;sycow@viva.org.pl
10163683;sylwia.chrostek@gmail.com
10032355;sylwia.serewis@univ.szczecin.pl
10127289;szafertj@polsl.gliwice.pl
10025382;szczygie@math.uni.wroc.pl
134616;szklarek@buduj.eu
10060041;szkola.ares@ares.suwalki.pl
10128256;szkola@psb.neostrada.pl
1074;szkola@wste.edu.pl
615;szkola@wwstiz.pl
10159067;szkolamedyczna@o2.pl
18;szlakjagiellonski@tlen.pl
134707;szort@szort.com.pl
10060324;szul@kwestura.agh.edu.pl
10092345;szwarcm@ae.katowice.pl
10107600;szymil@up.poznan.pl
10132632;t.kuk@wsl.edu.pl
10116904;t.wilhelmi@po.opole.pl
10129424;tadeusz.miastkowski@uwm.edu.pl
10163770;tako@pg.gda.pl
134814;tamak@tlen.pl
73638;tarnowpogorze@in.net.pl
10051986;tarr@narda.org.pl
61358;tarr@tarr.pl
136689;tarr@tarr.tarnow.pl
134833;tatis@vp.pl
10025400;tbajer@uwm.edu.pl
10149651;techmapl@p.lodz.pl
10165029;techniczny@pg.gda.pl
10059796;teresa.nagorska@tu.koszalin.pl
137079;teresa.zajac@tau.com.pl
10021255;teresat@uni.lot.pl
10015037;tesa@oksr.ac.bialystok.pl
10021484;thfac@amu.edu.pl
10036626;tjan@imppan.pg.gda.pl
73747;tkst.budowlani@wp.pl
10030946;tktoizj@ae.krakow.pl
134983;tkwjawor@tlen.pl
10181188;tmodys@neostrada.pl
10207414;tmuzyka@prz.edu.pl
10177967;tomasz.kacprzak@p.lodz.pl
10125553;tomasz.nowak@warsawtour.pl
10231292;tomasz.wanula@us.edu.pl
10228124;tomasz.wojtkiewicz@interia.pl
10151852;tomasz@rsw.edu.pl
10087042;tomek.wojtkiewicz@interia.pl
52638;toza@triada.pl
135480;tradytor@tradytor.pl
131560;trakt@trakt.com.pl
10204521;transport.ul@neostrada.pl
10153358;transport@juventur.com.pl
10170975;transport@polkaty.pl
10088109;transportul@neostrada.pl
153004;travel@grandtour.com.pl
10038856;trawka-g@poczta.onet.pl
135537;trygon@lgd-trygon.pl
135570;tst@kogeneracja.com.pl
135577;ttpik@ttpik.pl
135578;ttrcross@poczta.fm
135579;ttrcyklista@wp.pl
135581;ttwperkoz@wp.pl
85517;turysta.bielsko@pro.onet.pl
12235;turysta.skierniewice@neostrada.pl
7132;turysta@lodz.home.pl
35384;turysta@turysta.katowice.pl
21157;turysta@turysta.krakow.pl
428;turysta@turysta.walbrzych.pl
65623;turysta@turysta.zgora.pl
25489;turysta_lublin@op.pl
135603;turystapttkkrosnoodrz@interia.pl
131;turystyka@home.pl
135606;turystyka@lotur.eu
154;turystyka@powiat.hajnowka.pl
91;turystyka@powiat.szczytno.pl
135609;turystyka@powiat.wejherowo.pl
135611;turystyka@turek.net.pl
135612;turystykawodna@o2.pl
19;turystyka-wschowa@o2.pl
10038716;uam_admin@hoga.pl
10035535;uczelniaryki@lublin.home.pl
76;ug-turystyka@o2.pl
10036679;ujablonska@ar.krakow.pl
115;ujscieregi@gmail.com
10055522;umcssekretariat@wp.pl
53;umsanok@ks.onet.pl
10188331;umzi@ump.edu.pl
155931;uni-tur@uni-tur.com.pl
10163683;upawlowicz@pedagog.uw.edu.pl
10129176;urbano@bg.us.odv.pl
10224212;urszul1@vp.pl
10086840;urszula.roszyk@up.wroc.pl
10149557;uzzm@mckk.com.pl
132259;vital@travel.trader.pl
10116904;w.skrzeczkowska@po.opole.pl
10070373;w.szpreglewski@adm.uz.zgora.pl
10130186;w.towarek@pr.radom.pl
10092345;wacha@ae.katowice.pl
10042533;waktl@am.gdynia.pl
10129424;waldekdz@uwm.edn.pl
10157780;waldemar.sander@is.pw.edu.pl
10160923;wandakonasiuk@ac.wroc.pl
10049820;wandao@geo.uw.edu.pl
69;warczak@wp.pl
137052;warminskizakatek@wp.pl
126604;warmos@warmos.com.pl
10016121;warszawa@logostour.pl
10189772;warszawa@nova.edu.pl
26203;warszawahotel.airport@gromada.pl
10202748;waw_walcz@vp.pl
10160434;wawrzyniak@osw.olsztyn.pl
10153358;wb@juventur.com.pl
10087313;wbiernat@up.krakow.pl
151534;wcit@neostrada.pl
137101;wcit@warmia.mazury.pl
137105;wd-40@bikepl.com
10213440;weglowska@op.pl
10054601;wena@ozi.ar.wroc.pl
10150970;wiab@wiab.pl
137189;wierzba32@wp.pl
10172136;wieslaw_jankowski@sggw.pl
10135114;wieslawa.rajewska@pwciechanow.edu.pl
131403;wigry@suwalki.com
150419;wiking@gat.pl
10157267;wini@p.lodz.pl
10125012;wisbiop@wisbiop.pl
10131921;wj@agh.edu.pl
28;wlot@wlot.eu
123;wlot@wlot.pl
10016235;wmon@kul.lublin.pl
10016235;wojciech.moniuszko@kul.pl
10103129;wojen@p.lodz.pl
10212263;wojtan48@wp.pl
10059318;wojtek_pilewski@interia.eu
74214;wola@wola.com.pl
83;wot@wisla.pl
10162436;wpopielewski@wp.pl
3576;wroclaw.bt@gromada.pl
10226504;wroclaw@ochikara.pl
10051634;wsap@wsap.edu.pl
10089883;wsb@wsb.toi.tarnow.pl
10019840;wshig@wshig.poznan.pl
814;wshit@wshit.edu.pl
10028859;wshiu@wshiu.poznan.pl
10044049;wsiz@wsiz.rzeszow.plmhendzelwenus.wsiz.rzeszow.pl
137582;wst1@tlen.pl
1076;wsth@wsth.edu.pl
10052578;wstih@wstih.edu.pl
137583;wstirw@warta.poznan.pl
137588;wstz_europejczyk@op.pl
1093;wswfit@wswfit.com.pl
10025613;wszim@wszim.sosnowiec.pl
10025613;wszin@wszin.sosnowiec.pl
10042042;wwsz@wwsc.waw.ids.pl
10053485;www.aparnauk@unilodz.pl
10127289;wwydrychiewicz@polsl.pl
10134042;wzrach@uni.lodz.pl
10135445;yymnoga@ajf-kr.edn.pl
137781;z.gostomski@gmail.com
10034649;z.kozyra@il.pw.edu.pl
10016973;z.krawiec@gumed.edu.pl
10014053;z.rymarczyk@wp.pl
137812;zachod-wschod@o2.pl
10090539;zakpsych@umed.poznan.pl
10168324;zalewskim@um.lowicz.pl
136558;zamek@gat.pl
135289;zamekgolub@o2.pl
135294;zamosc@lfr.lublin.pl
10136345;zamowienia@uni.opole.pl
10051304;zampub@apsl.edu.pl
10103856;zaop2@ukw.edu.pl
10042297;zaroloro@op.pl
10030242;zarzad@gat-sa.com.pl
137899;zarzad@szansa.grzybowo.org
10106564;zarzad@turystyka_krakus.com.pl
29403;zarzad@turystyka-krakus.com.pl
150835;zarzad@zarr.com.pl
10035777;zawig@amu.edu.pl
10086840;zawisza@ada.ar.wroc.pl
10034347;zbere@umwb.edu.pl
10052077;zbigniew.kedzierski@p.lodz.pl
10059862;zbigniew.nedza@pwr.wroc.pl
10052172;zbwjg@interia.pl
10158292;zbyszekhel@wp.pl
10072648;zbyszekm@pg.gda.pl
10033228;zbyszekw@wseiz.pl
10015008;zcywin@pg.gda.pl
10168807;zelbet@ps.pl
10135132;zenona.mrozek@pwsz.raciborz.edu.pl
10051692;zgozdalski@wp.pl
10038017;zielinski@pwsz-ns.edu.pl
10057524;zielonagora@logostour.pl
10126614;zim.a@interia.pl
10149914;zimny@imir.agh.edu.pl
10104144;zm.poczta@pttk.pl
10180999;zobr@pg.gda.pl
138293;zofia@gorsky.pl
10025388;zoit@zamosc.um.gor.pl
10035603;zoohig@ursus.ar.lublin.pl
10118784;zooksit@nidzica.pl
10157528;zow2@poczta.fm
10014311;zpg@geo.uw.edu.pl
10170111;zpsic@tu.kielce.pl
10180666;zs1@edu.lodz.pl
10138521;zsgastr1@poczta.onet.pl
10169412;zsm_sl@wp.pl
10195344;zsrutwa@wp.pl
10227113;zsth@elblag.com.pl
10168193;zszbudostal@interia.pl
138108;zyrpttk@free.ngo.pl
10240422;zzbroja@sz.onet.pl
1;annag@agencjapracytworczej.pl
2;marcink@agencjapracytworczej.pl
3;pierszylepszy@gmail.com
5;nina.kinitz@agencjapracytworczej.pl
7;maria.winiarska@agencjapracytworczej.pl
8;magdalena.bobrowicz@agencjapracytworczej.pl
